<svg width="17" height="16" viewBox="0 0 17 16" fill="none" xmlns="http://www.w3.org/2000/svg">
<path d="M8.0013 0C5.82813 0 5.55469 0.00911458 4.70182 0.0481771C4.03829 0.0616633 3.38185 0.18758 2.76042 0.420573C2.22631 0.620262 1.74266 0.93499 1.34375 1.34245C0.936658 1.74217 0.62123 2.22553 0.419271 2.75911C0.186188 3.38092 0.060696 4.03788 0.0481771 4.70182C0.0104167 5.55469 0 5.82682 0 8C0 10.1732 0.00911458 10.444 0.0481771 11.2982C0.0616633 11.9617 0.18758 12.6182 0.420573 13.2396C0.621246 13.7732 0.935843 14.2566 1.34245 14.6563C1.74182 15.0638 2.22528 15.3793 2.75911 15.5807C3.38109 15.8132 4.03795 15.9387 4.70182 15.9518C5.55469 15.9909 5.82682 16 8 16C10.1732 16 10.444 15.9909 11.2982 15.9518C11.9621 15.9387 12.6189 15.8132 13.2409 15.5807C13.773 15.3744 14.2562 15.0594 14.6597 14.6558C15.0633 14.2523 15.3783 13.7691 15.5846 13.237C15.8164 12.6152 15.9423 11.959 15.957 11.2956C15.9948 10.4427 16.0052 10.1706 16.0052 7.9974C16.0052 5.82422 15.9948 5.55208 15.957 4.69922C15.9423 4.0354 15.8164 3.37874 15.5846 2.75651C15.3837 2.22274 15.0686 1.73927 14.6615 1.33984C14.2628 0.932087 13.7791 0.617313 13.2448 0.417969C12.6211 0.185288 11.9624 0.0602455 11.2969 0.0481771C10.4427 0.00911458 10.1719 0 7.9987 0H8.0013ZM7.28255 1.44141H8.0013C10.1367 1.44141 10.3893 1.44922 11.2331 1.48828C11.7404 1.49406 12.2429 1.58699 12.7188 1.76302C13.0661 1.89135 13.3803 2.09604 13.638 2.36198C13.9034 2.62016 14.108 2.93418 14.237 3.28125C14.413 3.75708 14.5059 4.25962 14.5117 4.76693C14.5508 5.60938 14.5586 5.86328 14.5586 7.9987C14.5586 10.1341 14.5508 10.3867 14.5117 11.2305C14.5061 11.7374 14.4131 12.2395 14.237 12.7148C14.1037 13.0596 13.8998 13.3727 13.6383 13.6339C13.3769 13.8951 13.0636 14.0988 12.7188 14.2318C12.2433 14.4092 11.7406 14.5026 11.2331 14.5078C10.3906 14.5469 10.1367 14.5547 8.0013 14.5547C5.86589 14.5547 5.61198 14.5469 4.76823 14.5078C4.26084 14.5016 3.7583 14.4082 3.28255 14.2318C2.93482 14.104 2.62022 13.8997 2.36198 13.6341C2.09651 13.3763 1.89227 13.0621 1.76432 12.7148C1.58785 12.2391 1.49447 11.7366 1.48828 11.2292C1.45052 10.3854 1.44271 10.1328 1.44271 7.99609C1.44271 5.85938 1.45052 5.60807 1.48828 4.76432C1.49369 4.25686 1.58709 3.75418 1.76432 3.27865C1.89227 2.93138 2.09651 2.61724 2.36198 2.35938C2.62042 2.09368 2.93493 1.88905 3.28255 1.76042C3.75845 1.58449 4.2609 1.49113 4.76823 1.48438C5.50651 1.45182 5.79167 1.44141 7.28255 1.4401V1.44141ZM12.2708 2.76953C12.0807 2.76953 11.8949 2.82592 11.7368 2.93157C11.5788 3.03722 11.4556 3.18737 11.3829 3.36304C11.3102 3.5387 11.2913 3.73198 11.3285 3.91842C11.3656 4.10486 11.4573 4.27608 11.5918 4.41042C11.7263 4.54475 11.8977 4.63617 12.0842 4.6731C12.2707 4.71003 12.4639 4.69082 12.6395 4.61789C12.815 4.54495 12.965 4.42159 13.0705 4.26339C13.1759 4.10519 13.232 3.91928 13.2318 3.72917C13.2318 3.60304 13.2069 3.47814 13.1586 3.36163C13.1103 3.24512 13.0395 3.13927 12.9502 3.05014C12.861 2.96101 12.755 2.89035 12.6385 2.84221C12.5219 2.79406 12.397 2.76936 12.2708 2.76953ZM8.0013 3.89193C7.1888 3.89193 6.39455 4.13286 5.71898 4.58426C5.04341 5.03566 4.51687 5.67726 4.20594 6.42791C3.89501 7.17856 3.81365 8.00456 3.97216 8.80145C4.13068 9.59833 4.52193 10.3303 5.09646 10.9048C5.67098 11.4794 6.40297 11.8706 7.19986 12.0291C7.99675 12.1876 8.82274 12.1063 9.57339 11.7954C10.324 11.4844 10.9656 10.9579 11.417 10.2823C11.8684 9.60675 12.1094 8.8125 12.1094 8C12.109 6.91058 11.6761 5.86587 10.9058 5.09554C10.1354 4.3252 9.09073 3.89227 8.0013 3.89193ZM8.0013 5.33333C8.52888 5.33256 9.04484 5.4883 9.48389 5.78085C9.92293 6.07339 10.2653 6.4896 10.4678 6.9768C10.6702 7.464 10.7236 8.0003 10.6211 8.51784C10.5187 9.03538 10.265 9.5109 9.89221 9.88423C9.51943 10.2576 9.04428 10.5119 8.52689 10.6151C8.0095 10.7184 7.47312 10.6658 6.98562 10.4641C6.49813 10.2623 6.08142 9.92054 5.78823 9.48193C5.49504 9.04331 5.33854 8.52758 5.33854 8C5.33992 7.29434 5.62094 6.61799 6.12005 6.11913C6.61915 5.62027 7.29564 5.33957 8.0013 5.33854V5.33333Z" fill="#BFBFBF"/>
</svg>
