<svg width="17" height="16" viewBox="0 0 17 16" fill="none" xmlns="http://www.w3.org/2000/svg">
<path d="M6.80686 8.95917C7.18785 9.36562 7.60402 9.73759 8.05052 10.0707C8.53342 10.4297 9.04518 10.7481 9.58056 11.0228L9.60279 11.0071C9.64203 10.9757 9.68649 10.9352 9.73357 10.8894C9.78065 10.8436 9.81203 10.8044 9.85388 10.7586L10.0017 10.5664C10.0147 10.5463 10.0296 10.5275 10.0461 10.5101C10.6097 9.76735 11.312 8.87417 12.4419 9.39726C12.4653 9.40697 12.4881 9.41833 12.5099 9.43126C13.4253 9.97266 14.3642 10.4971 15.2875 11.028C15.3105 11.04 15.3324 11.054 15.3529 11.0698C15.5816 11.2251 15.7652 11.4381 15.8851 11.6871C16.0038 11.9436 16.0645 12.2231 16.063 12.5057C16.0602 12.7761 16.0188 13.0448 15.9401 13.3035C15.8572 13.5797 15.7431 13.8455 15.6001 14.0959C15.4236 14.408 15.1939 14.6869 14.9213 14.9198C14.6641 15.1392 14.3765 15.3202 14.0674 15.4573H14.0609C13.7801 15.584 13.4886 15.6855 13.1899 15.7607C12.8999 15.8347 12.6061 15.8932 12.3098 15.9359C11.8566 16.0037 11.3971 16.0178 10.9406 15.9778C10.4893 15.9376 10.0435 15.8499 9.61064 15.7162C9.16666 15.5755 8.73425 15.4006 8.31729 15.1931C7.86217 14.9686 7.41872 14.7211 6.98864 14.4516L6.87879 14.3836C6.47731 14.1339 6.04445 13.8606 5.60636 13.5375C4.70285 12.8524 3.87044 12.0783 3.12167 11.2268C2.39548 10.406 1.75975 9.50935 1.22546 8.55246C0.749885 7.70905 0.397578 6.80186 0.179273 5.85854C-0.0169861 5.01973 -0.0524854 4.15133 0.0746541 3.2993C0.151843 2.79443 0.31179 2.30575 0.548053 1.85295C0.768624 1.43102 1.073 1.05856 1.44254 0.758378C1.80869 0.464848 2.23238 0.251445 2.6862 0.131974C3.16592 0.00945475 3.66339 -0.0281651 4.15609 0.0208167C4.28737 0.0292539 4.41432 0.0711195 4.52487 0.142436C4.63343 0.212604 4.72321 0.308223 4.78642 0.420983L6.54662 3.40131C6.70168 3.60131 6.80297 3.83766 6.84086 4.08787C6.87218 4.33676 6.83511 4.58948 6.73363 4.81889C6.64981 5.00878 6.5349 5.18337 6.39362 5.33544C6.25387 5.48616 6.0997 5.62281 5.9333 5.74346C5.83783 5.82584 5.71752 5.91346 5.59198 6.005L5.58021 6.01416C5.4312 6.11642 5.29001 6.22964 5.15781 6.35286C5.10617 6.39459 5.06572 6.44852 5.04012 6.50979C5.04012 6.52417 5.05188 6.50979 5.06496 6.53202L5.10943 6.60133C5.2572 6.8328 5.54228 7.27481 5.86791 7.74429C6.15446 8.16984 6.46809 8.57651 6.80686 8.96178V8.95917ZM7.51958 10.7769C7.03312 10.4135 6.57896 10.0088 6.16215 9.56727C5.79186 9.15057 5.4502 8.70929 5.1395 8.24646C4.81519 7.77829 4.51702 7.31666 4.36271 7.0695L4.32479 7.01326C4.2592 6.93265 4.21029 6.83981 4.18088 6.74013C4.15147 6.64046 4.14215 6.53593 4.15347 6.43263C4.18815 6.1567 4.32145 5.90263 4.52879 5.7173C4.6939 5.56075 4.87098 5.41734 5.05842 5.28836C5.16304 5.21252 5.26243 5.13928 5.35266 5.06213L5.38013 5.0412C5.50707 4.95241 5.62413 4.85026 5.72929 4.7365C5.80469 4.65589 5.86652 4.56358 5.91237 4.46318C5.95011 4.3815 5.96502 4.29112 5.95553 4.20164C5.93601 4.10007 5.89101 4.00513 5.82476 3.92571C5.8086 3.90728 5.79457 3.8871 5.78291 3.86555L4.04101 0.898305C3.66329 0.863956 3.28248 0.894474 2.91505 0.988539C2.58068 1.07589 2.26866 1.23324 1.99964 1.45017C1.72392 1.67515 1.4966 1.95363 1.33139 2.26881C1.14181 2.63512 1.01369 3.03008 0.952143 3.43792C0.841935 4.1781 0.872997 4.93246 1.04368 5.66107C1.24592 6.5222 1.57002 7.35006 2.00618 8.11961C2.50826 9.01816 3.10634 9.8596 3.78992 10.6291C4.49938 11.4353 5.28798 12.1683 6.14384 12.817C6.53616 13.1138 6.96248 13.3767 7.3548 13.6199L7.46596 13.6905C7.86858 13.9432 8.28365 14.1754 8.70961 14.3863C9.08498 14.5733 9.4746 14.7303 9.8748 14.8557C10.2479 14.9729 10.6323 15.05 11.0217 15.0859C11.4097 15.1192 11.8004 15.1069 12.1856 15.0493C12.4497 15.0122 12.7117 14.9607 12.9702 14.895C13.2183 14.8329 13.4603 14.7489 13.6934 14.6439H13.7052C13.9377 14.5409 14.1543 14.4052 14.3486 14.2411C14.5427 14.0749 14.7064 13.8762 14.8324 13.6539C14.942 13.4625 15.0297 13.2594 15.094 13.0484C15.148 12.8707 15.177 12.6863 15.1803 12.5005C15.1836 12.35 15.1527 12.2006 15.09 12.0637C15.0372 11.9526 14.9554 11.8578 14.8533 11.7891C14.1459 11.283 12.9035 10.6658 12.1071 10.2054L12.0692 10.1858L12.0849 10.1937L12.0692 10.1858C11.5788 9.96743 11.1237 10.5454 10.7536 11.0332L10.7314 11.0646C10.6673 11.1496 10.6006 11.232 10.5483 11.3026C10.496 11.3732 10.4175 11.4596 10.3652 11.5119C10.2948 11.5822 10.2201 11.6481 10.1416 11.7093C10.053 11.7762 9.95579 11.8307 9.85257 11.8715C9.75489 11.9099 9.65007 11.9269 9.54525 11.9212C9.45503 11.9151 9.36655 11.8934 9.28371 11.8571L9.24186 11.8388C8.63879 11.5341 8.06263 11.1789 7.51958 10.7769Z" fill="#BFBFBF"/>
</svg>
